{
    "current_page": 1,
    "data": [
        {
            "id": 3561,
            "user_id": 1,
            "affiliate_state_id": 5,
            "city_identity_card_id": 4,
            "city_birth_id": 4,
            "degree_id": 32,
            "unit_id": 19,
            "category_id": 8,
            "pension_entity_id": 2,
            "identity_card": "2234288",
            "registration": "540328TMS",
            "type": "Comando",
            "last_name": "TORRE",
            "mothers_last_name": "MULLISACA",
            "first_name": "SIXTO",
            "second_name": null,
            "surname_husband": null,
            "gender": "M",
            "civil_status": "C",
            "birth_date": "1954-03-28",
            "date_entry": "1983-01-01",
            "date_death": null,
            "reason_death": "",
            "date_derelict": null,
            "reason_derelict": null,
            "change_date": "2016-07-01",
            "phone_number": "",
            "cell_phone_number": "(720)-15937",
            "afp": true,
            "nua": 26271503,
            "item": 32706,
            "created_at": "2017-06-01 10:43:12",
            "updated_at": "2018-10-26 10:04:49",
            "deleted_at": null,
            "service_years": null,
            "service_months": null,
            "death_certificate_number": "",
            "due_date": null,
            "is_duedate_undefined": true,
            "affiliate_registration_number": null,
            "file_code": null,
            "picture_saved": true,
            "fingerprint_saved": true,
            "full_name": "SIXTO TORRE MULLISACA"
        }, {}
    ],
    "first_page_url": "http://127.0.0.1/api/v1/affiliate?page=1",
    "from": 1,
    "last_page": 5760,
    "last_page_url": "http://127.0.0.1/api/v1/affiliate?page=5760",
    "next_page_url": "http://127.0.0.1/api/v1/affiliate?page=2",
    "path": "http://127.0.0.1/api/v1/affiliate",
    "per_page": 10,
    "prev_page_url": null,
    "to": 10,
    "total": 57592
}