{
    "current_page": 1,
    "data": [
        {
            "id": 10,
            "city_identity_card_id": null,
            "city_birth_id": null,
            "identity_card": null,
            "last_name": "SABIOO",
            "mothers_last_name": "OJAFFF",
            "first_name": "PEDRO",
            "second_name": "ROBERTO",
            "surname_husband": "MARISCAL",
            "civil_status": null,
            "gender": null,
            "phone_number": "22541013",
            "cell_phone_number": "76543210",
            "address": null,
            "created_at": "2020-09-29T12:27:12.000000Z",
            "updated_at": "2020-09-29T12:27:12.000000Z",
            "loans": [
                {
                    "id": 6,
                    "code": "PTMO000006-2020",
                    "disbursable_id": 22773,
                    "disbursable_type": "affiliates",
                    "procedure_modality_id": 46,
                    "disbursement_date": null,
                    "parent_loan_id": null,
                    "parent_reason": null,
                    "request_date": "2020-09-29T04:00:00.000000Z",
                    "amount_requested": 26000,
                    "city_id": 4,
                    "interest_id": 15,
                    "state_id": 1,
                    "amount_approved": 26000,
                    "indebtedness_calculated": "75",
                    "liquid_qualification_calculated": "2000",
                    "loan_term": 40,
                    "payment_type_id": 1,
                    "number_payment_type": 10000541214,
                    "destiny_id": 1,
                    "financial_entity_id": 1,
                    "role_id": 82,
                    "property_id": 7,
                    "validated": true,
                    "created_at": "2020-09-29T12:42:34.000000Z",
                    "updated_at": "2020-09-29T12:42:34.000000Z",
                    "deleted_at": null,
                    "pivot": {
                        "personal_reference_id": 1,
                        "loan_id": 6,
                        "cosigner": false
                    }
                }
            ]
        }, {}
    ],
    "first_page_url": "http://127.0.0.1/api/v1/personal_reference?page=1",
    "from": 1,
    "last_page": 2,
    "last_page_url": "http://127.0.0.1/api/v1/personal_reference?page=2",
    "next_page_url": "http://127.0.0.1/api/v1/personal_reference?page=2",
    "path": "http://127.0.0.1/api/v1/personal_reference",
    "per_page": 10,
    "prev_page_url": null,
    "to": 10,
    "total": 16
}
