{
    "current_page": 1,
    "data": [
        {
            "id": 10,
            "loan_id": 1,
            "code": "PAY000010-2021",
            "procedure_modality_id": 59,
            "estimated_date": "2021-04-07",
            "quota_number": 1,
            "estimated_quota": "350",
            "penal_remaining": "0",
            "penal_payment": "191.67",
            "interest_remaining": "0",
            "interest_payment": "158.33",
            "capital_payment": "0",
            "interest_accumulated": "911.11",
            "penal_accumulated": "0",
            "state_id": 6,
            "voucher": null,
            "paid_by": "T",
            "role_id": 91,
            "affiliate_id": 57950,
            "amortization_type_id": 4,
            "validated": true,
            "description": "descuento por fondo de retirodedddd",
            "user_id": 95,
            "created_at": "2021-04-07T18:07:15.000000Z",
            "updated_at": "2021-04-07T21:11:29.000000Z",
            "deleted_at": null,
            "balance": 25000,
            "loan": {
                "id": 1,
                "code": "PTMO000001-2021",
                "disbursable_id": 57950,
                "disbursable_type": "affiliates",
                "procedure_modality_id": 34,
                "disbursement_date": "2021-01-10",
                "num_budget_certification": "5",
                "num_accounting_voucher": "6",
                "parent_loan_id": null,
                "parent_reason": null,
                "request_date": "2021-04-06T04:00:00.000000Z",
                "amount_requested": 25000,
                "city_id": 4,
                "interest_id": 3,
                "state_id": 3,
                "amount_approved": 25000,
                "indebtedness_calculated": "48.05",
                "liquid_qualification_calculated": "4819.5",
                "loan_term": 12,
                "guarantor_amortizing": false,
                "payment_type_id": 2,
                "number_payment_type": 6587946,
                "destiny_id": 2,
                "financial_entity_id": null,
                "role_id": 91,
                "property_id": null,
                "validated": false,
                "user_id": null,
                "created_at": "2021-04-06T19:21:17.000000Z",
                "updated_at": "2021-04-06T19:23:33.000000Z",
                "deleted_at": null,
                "estimated_quota": 2315.86,
                "interest": {
                    "id": 3,
                    "procedure_modality_id": 34,
                    "annual_interest": "20.00",
                    "penal_interest": "6.00",
                    "created_at": "2021-04-06T19:16:03.000000Z",
                    "updated_at": "2021-04-06T19:16:03.000000Z"
                }
            }
        },
        {
            "id": 12,
            "loan_id": 1,
            "code": "PAY000012-2021",
            "procedure_modality_id": 54,
            "estimated_date": "2021-04-07",
            "quota_number": 2,
            "estimated_quota": "2315.86",
            "penal_remaining": "0",
            "penal_payment": "0",
            "interest_remaining": "911.11",
            "interest_payment": "0",
            "capital_payment": "1404.75",
            "interest_accumulated": "0",
            "penal_accumulated": "0",
            "state_id": 6,
            "voucher": null,
            "paid_by": "T",
            "role_id": 92,
            "affiliate_id": 57950,
            "amortization_type_id": 1,
            "validated": true,
            "description": null,
            "user_id": null,
            "created_at": "2021-04-07T18:40:29.000000Z",
            "updated_at": "2021-04-07T18:45:40.000000Z",
            "deleted_at": null,
            "balance": 23595.25,
            "loan": {
                "id": 1,
                "code": "PTMO000001-2021",
                "disbursable_id": 57950,
                "disbursable_type": "affiliates",
                "procedure_modality_id": 34,
                "disbursement_date": "2021-01-10",
                "num_budget_certification": "5",
                "num_accounting_voucher": "6",
                "parent_loan_id": null,
                "parent_reason": null,
                "request_date": "2021-04-06T04:00:00.000000Z",
                "amount_requested": 25000,
                "city_id": 4,
                "interest_id": 3,
                "state_id": 3,
                "amount_approved": 25000,
                "indebtedness_calculated": "48.05",
                "liquid_qualification_calculated": "4819.5",
                "loan_term": 12,
                "guarantor_amortizing": false,
                "payment_type_id": 2,
                "number_payment_type": 6587946,
                "destiny_id": 2,
                "financial_entity_id": null,
                "role_id": 91,
                "property_id": null,
                "validated": false,
                "user_id": null,
                "created_at": "2021-04-06T19:21:17.000000Z",
                "updated_at": "2021-04-06T19:23:33.000000Z",
                "deleted_at": null,
                "estimated_quota": 2315.86
            }
        },
        {
            "id": 13,
            "loan_id": 1,
            "code": "PAY000013-2021",
            "procedure_modality_id": 54,
            "estimated_date": "2021-04-07",
            "quota_number": 3,
            "estimated_quota": "2315.86",
            "penal_remaining": "0",
            "penal_payment": "0",
            "interest_remaining": "0",
            "interest_payment": "0",
            "capital_payment": "2315.86",
            "interest_accumulated": "0",
            "penal_accumulated": "0",
            "state_id": 6,
            "voucher": null,
            "paid_by": "T",
            "role_id": 92,
            "affiliate_id": 57950,
            "amortization_type_id": 1,
            "validated": true,
            "description": null,
            "user_id": 92,
            "created_at": "2021-04-07T19:38:18.000000Z",
            "updated_at": "2021-04-07T20:08:29.000000Z",
            "deleted_at": null,
            "balance": 22684.14,
            "loan": {
                "id": 1,
                "code": "PTMO000001-2021",
                "disbursable_id": 57950,
                "disbursable_type": "affiliates",
                "procedure_modality_id": 34,
                "disbursement_date": "2021-01-10",
                "num_budget_certification": "5",
                "num_accounting_voucher": "6",
                "parent_loan_id": null,
                "parent_reason": null,
                "request_date": "2021-04-06T04:00:00.000000Z",
                "amount_requested": 25000,
                "city_id": 4,
                "interest_id": 3,
                "state_id": 3,
                "amount_approved": 25000,
                "indebtedness_calculated": "48.05",
                "liquid_qualification_calculated": "4819.5",
                "loan_term": 12,
                "guarantor_amortizing": false,
                "payment_type_id": 2,
                "number_payment_type": 6587946,
                "destiny_id": 2,
                "financial_entity_id": null,
                "role_id": 91,
                "property_id": null,
                "validated": false,
                "user_id": null,
                "created_at": "2021-04-06T19:21:17.000000Z",
                "updated_at": "2021-04-06T19:23:33.000000Z",
                "deleted_at": null,
                "estimated_quota": 2315.86
            }
        },
        {
            "id": 14,
            "loan_id": 1,
            "code": "PAY000014-2021",
            "procedure_modality_id": 53,
            "estimated_date": "2021-04-07",
            "quota_number": 4,
            "estimated_quota": "400",
            "penal_remaining": "0",
            "penal_payment": "0",
            "interest_remaining": "0",
            "interest_payment": "0",
            "capital_payment": "400",
            "interest_accumulated": "0",
            "penal_accumulated": "0",
            "state_id": 6,
            "voucher": null,
            "paid_by": "T",
            "role_id": 92,
            "affiliate_id": 57950,
            "amortization_type_id": 1,
            "validated": true,
            "description": null,
            "user_id": null,
            "created_at": "2021-04-07T19:43:07.000000Z",
            "updated_at": "2021-04-07T19:44:08.000000Z",
            "deleted_at": null,
            "balance": 24600,
            "loan": {
                "id": 1,
                "code": "PTMO000001-2021",
                "disbursable_id": 57950,
                "disbursable_type": "affiliates",
                "procedure_modality_id": 34,
                "disbursement_date": "2021-01-10",
                "num_budget_certification": "5",
                "num_accounting_voucher": "6",
                "parent_loan_id": null,
                "parent_reason": null,
                "request_date": "2021-04-06T04:00:00.000000Z",
                "amount_requested": 25000,
                "city_id": 4,
                "interest_id": 3,
                "state_id": 3,
                "amount_approved": 25000,
                "indebtedness_calculated": "48.05",
                "liquid_qualification_calculated": "4819.5",
                "loan_term": 12,
                "guarantor_amortizing": false,
                "payment_type_id": 2,
                "number_payment_type": 6587946,
                "destiny_id": 2,
                "financial_entity_id": null,
                "role_id": 91,
                "property_id": null,
                "validated": false,
                "user_id": null,
                "created_at": "2021-04-06T19:21:17.000000Z",
                "updated_at": "2021-04-06T19:23:33.000000Z",
                "deleted_at": null,
                "estimated_quota": 2315.86
            }
        },
        {
            "id": 15,
            "loan_id": 1,
            "code": "PAY000015-2021",
            "procedure_modality_id": 54,
            "estimated_date": "2021-04-07",
            "quota_number": 5,
            "estimated_quota": "2315.86",
            "penal_remaining": "0",
            "penal_payment": "0",
            "interest_remaining": "0",
            "interest_payment": "0",
            "capital_payment": "2315.86",
            "interest_accumulated": "0",
            "penal_accumulated": "0",
            "state_id": 6,
            "voucher": null,
            "paid_by": "T",
            "role_id": 92,
            "affiliate_id": 57950,
            "amortization_type_id": 1,
            "validated": true,
            "description": null,
            "user_id": 92,
            "created_at": "2021-04-07T20:09:23.000000Z",
            "updated_at": "2021-04-07T20:10:22.000000Z",
            "deleted_at": null,
            "balance": 22684.14,
            "loan": {
                "id": 1,
                "code": "PTMO000001-2021",
                "disbursable_id": 57950,
                "disbursable_type": "affiliates",
                "procedure_modality_id": 34,
                "disbursement_date": "2021-01-10",
                "num_budget_certification": "5",
                "num_accounting_voucher": "6",
                "parent_loan_id": null,
                "parent_reason": null,
                "request_date": "2021-04-06T04:00:00.000000Z",
                "amount_requested": 25000,
                "city_id": 4,
                "interest_id": 3,
                "state_id": 3,
                "amount_approved": 25000,
                "indebtedness_calculated": "48.05",
                "liquid_qualification_calculated": "4819.5",
                "loan_term": 12,
                "guarantor_amortizing": false,
                "payment_type_id": 2,
                "number_payment_type": 6587946,
                "destiny_id": 2,
                "financial_entity_id": null,
                "role_id": 91,
                "property_id": null,
                "validated": false,
                "user_id": null,
                "created_at": "2021-04-06T19:21:17.000000Z",
                "updated_at": "2021-04-06T19:23:33.000000Z",
                "deleted_at": null,
                "estimated_quota": 2315.86
            }
        }
    ],
    "first_page_url": "http://192.168.2.99/api/v1/kardex_loan_payment?page=1",
    "from": 1,
    "last_page": 2,
    "last_page_url": "http://192.168.2.99/api/v1/kardex_loan_payment?page=2",
    "next_page_url": "http://192.168.2.99/api/v1/kardex_loan_payment?page=2",
    "path": "http://192.168.2.99/api/v1/kardex_loan_payment",
    "per_page": 5,
    "prev_page_url": null,
    "to": 5,
    "total": 6
}