{
    "current_page": 1,
    "data": [
        {
            "id_loan": 705,
            "code_loan": "PTMO000705-2021",
            "id_affiliate": 19245,
            "identity_card_affiliate": "1765754",
            "registration_affiliate": null,
            "last_name_affiliate": "MAMANI",
            "mothers_last_name_affiliate": "COARITE",
            "first_name_affiliate": "DIONISIO",
            "second_name_affiliate": "JESUS",
            "surname_husband_affiliate": null,
            "full_name_affiliate": "MAMANI COARITE DIONISIO JESUS ",
            "state_type_affiliate": "Activo",
            "state_affiliate": "Servicio",
            "pension_entity_affiliate": null,
            "identity_card_borrower": "1765754",
            "registration_borrower": null,
            "last_name_borrower": "MAMANI",
            "mothers_last_name_borrower": "COARITE",
            "first_name_borrower": "DIONISIO",
            "second_name_borrower": "JESUS",
            "surname_husband_borrower": null,
            "full_name_borrower": "MAMANI COARITE DIONISIO JESUS ",
            "sub_modality_loan": "Corto Plazo Sector Activo",
            "shortened_sub_modality_loan": "COR-ACT",
            "modality_loan": "Corto Plazo",
            "name_modality_loan": "Préstamo a Corto Plazo",
            "amount_approved_loan": "25000",
            "quota_loan": "1272.4",
            "state_loan": "En Proceso",
            "city_loan": "PANDO",
            "user_loan": null,
            "name_role_loan": "Calificación",
            "loan_term": 24,
            "disbursement_date_loan": null,
            "request_date_loan": "2021-07-14",
            "validated_loan": false,
            "type_affiliate_spouse_loan": "affiliates",
            "guarantor_loan": false,
            "balance_loan": 25000
        }
    ],
    "first_page_url": "http://192.168.2.242/api/v1/list_loan_payments_generate?page=1",
    "from": 1,
    "last_page": 5,
    "last_page_url": "http://192.168.2.242/api/v1/list_loan_payments_generate?page=5",
    "next_page_url": "http://192.168.2.242/api/v1/list_loan_payments_generate?page=2",
    "path": "http://192.168.2.242/api/v1/list_loan_payments_generate",
    "per_page": "1",
    "prev_page_url": null,
    "to": 1,
    "total": 5
}