{
    "current_page": 1,
    "data": [
        {
            "id": 1,
            "user_id": 1,
            "affiliate_id": 1,
            "degree_id": 7,
            "unit_id": 1,
            "breakdown_id": 10,
            "category_id": 7,
            "month_year": "1999-02-01",
            "item": "0",
            "type": "Planilla",
            "base_wage": "1536.00",
            "seniority_bonus": "1305.60",
            "study_bonus": "307.20",
            "position_bonus": "0.00",
            "border_bonus": "0.00",
            "east_bonus": "0.00",
            "public_security_bonus": null,
            "deceased": "0",
            "natality": "0",
            "lactation": "0",
            "prenatal": "0",
            "subsidy": null,
            "gain": "3148.80",
            "payable_liquid": "2419.30",
            "quotable": "3148.80",
            "retirement_fund": "58.25",
            "mortuary_quota": "20.47",
            "subtotal": null,
            "interest": null,
            "total": "78.72",
            "created_at": "2017-06-01T14:42:18.000000Z",
            "updated_at": "2017-06-01T14:42:18.000000Z",
            "deleted_at": null,
            "contribution_type_id": null,
            "valid": true,
            "breakdown": {
                "id": 10,
                "code": 0,
                "name": "Servicio"
            }
        },
        {
            "id": 6,
            "user_id": 1,
            "affiliate_id": 6,
            "degree_id": 7,
            "unit_id": 1,
            "breakdown_id": 10,
            "category_id": 7,
            "month_year": "1999-02-01",
            "item": "0",
            "type": "Planilla",
            "base_wage": "1536.00",
            "seniority_bonus": "1305.60",
            "study_bonus": "307.20",
            "position_bonus": "0.00",
            "border_bonus": "0.00",
            "east_bonus": "0.00",
            "public_security_bonus": null,
            "deceased": "0",
            "natality": "0",
            "lactation": "0",
            "prenatal": "0",
            "subsidy": null,
            "gain": "3148.80",
            "payable_liquid": "2554.60",
            "quotable": "3148.80",
            "retirement_fund": "58.25",
            "mortuary_quota": "20.47",
            "subtotal": null,
            "interest": null,
            "total": "78.72",
            "created_at": "2017-06-01T14:42:18.000000Z",
            "updated_at": "2017-06-01T14:42:18.000000Z",
            "deleted_at": null,
            "contribution_type_id": null,
            "valid": true,
            "breakdown": {
                "id": 10,
                "code": 0,
                "name": "Servicio"
            }
        },
        {
            "id": 11,
            "user_id": 1,
            "affiliate_id": 11,
            "degree_id": 8,
            "unit_id": 1,
            "breakdown_id": 10,
            "category_id": 5,
            "month_year": "1999-02-01",
            "item": "0",
            "type": "Planilla",
            "base_wage": "1462.00",
            "seniority_bonus": "950.30",
            "study_bonus": "292.40",
            "position_bonus": "0.00",
            "border_bonus": "0.00",
            "east_bonus": "0.00",
            "public_security_bonus": null,
            "deceased": "0",
            "natality": "0",
            "lactation": "0",
            "prenatal": "0",
            "subsidy": null,
            "gain": "2704.70",
            "payable_liquid": "1642.20",
            "quotable": "2704.70",
            "retirement_fund": "50.04",
            "mortuary_quota": "17.58",
            "subtotal": null,
            "interest": null,
            "total": "67.62",
            "created_at": "2017-06-01T14:42:18.000000Z",
            "updated_at": "2017-06-01T14:42:18.000000Z",
            "deleted_at": null,
            "contribution_type_id": null,
            "valid": true,
            "breakdown": {
                "id": 10,
                "code": 0,
                "name": "Servicio"
            }
        }
    ],
    "first_page_url": "http://127.0.0.1/api/v1/affiliate/26606/contributions_affiliate?page=1",
    "from": 1,
    "last_page": 891352,
    "last_page_url": "http://127.0.0.1/api/v1/affiliate/26606/contributions_affiliate?page=891352",
    "next_page_url": "http://127.0.0.1/api/v1/affiliate/26606/contributions_affiliate?page=2",
    "path": "http://127.0.0.1/api/v1/affiliate/26606/contributions_affiliate",
    "per_page": 10,
    "prev_page_url": null,
    "to": 10,
    "total": 8913517
}