{
    "current_page": 1,
    "data": [
        {
            "id": 23,
            "year": 2022,
            "month": 6,
            "import_command": true,
            "import_senasir": true,
            "description": null,
            "created_at": "2021-06-28T22:31:51.000000Z",
            "updated_at": "2021-06-28T22:31:51.000000Z",
            "deleted_at": null
        },
        {
            "id": 12,
            "year": 2021,
            "month": 7,
            "import_command": true,
            "import_senasir": false,
            "description": null,
            "created_at": "2021-06-25T21:29:40.000000Z",
            "updated_at": "2021-06-25T21:29:40.000000Z",
            "deleted_at": null
        }
    ],
    "first_page_url": "http://192.168.2.242/api/v1/periods?page=1",
    "from": 1,
    "last_page": 2,
    "last_page_url": "http://192.168.2.242/api/v1/periods?page=2",
    "next_page_url": "http://192.168.2.242/api/v1/periods?page=2",
    "path": "http://192.168.2.242/api/v1/periods",
    "per_page": 10,
    "prev_page_url": null,
    "to": 10,
    "total": 15
}