{
    "current_page": 1,
    "data": [
        {
            "id": 590979,
            "affiliate_id": 26088,
            "month_year": "2020-06-01",
            "type": "PLANILLA",
            "quotable": "3475.99",
            "rent": "3475.99",
            "dignity_rent": "0.00",
            "interest": "0.00",
            "total": "70.57",
            "created_at": "2020-11-16T17:09:27.000000Z",
            "updated_at": "2020-11-16T17:09:31.000000Z",
            "deleted_at": null,
            "affiliate_contribution": true,
            "mortuary_aid": null,
            "valid": true
        },
        {
            "id": 590980,
            "affiliate_id": 26088,
            "month_year": "2020-07-01",
            "type": "PLANILLA",
            "quotable": "3525.81",
            "rent": "3525.81",
            "dignity_rent": "0.00",
            "interest": "0.00",
            "total": "71.57",
            "created_at": "2020-11-16T17:09:27.000000Z",
            "updated_at": "2020-11-16T17:09:31.000000Z",
            "deleted_at": null,
            "affiliate_contribution": true,
            "mortuary_aid": null,
            "valid": true
        }
    ],
    "first_page_url": "http://127.0.0.1/api/v1/aid_contritution?page=1",
    "from": 1,
    "last_page": 59121,
    "last_page_url": "http://127.0.0.1/api/v1/aid_contritution?page=59121",
    "next_page_url": "http://127.0.0.1/api/v1/aid_contritution?page=2",
    "path": "http://127.0.0.1/api/v1/aid_contritution",
    "per_page": 10,
    "prev_page_url": null,
    "to": 10,
    "total": 591205
}