{
    "current_page": 1,
    "data": [
        {
            "id_loan": 563,
            "code_loan": "PTMO000563-2021",
            "id_affiliate": 51202,
            "identity_card_affiliate": "9862578",
            "registration_affiliate": null,
            "last_name_affiliate": "FLORES",
            "mothers_last_name_affiliate": "CAPAJAÑA",
            "first_name_affiliate": "JULIO",
            "second_name_affiliate": "JHONATHAN",
            "surname_husband_affiliate": null,
            "full_name_affiliate": "FLORES CAPAJAÑA JULIO JHONATHAN ",
            "state_type_affiliate": "Activo",
            "state_affiliate": "Servicio",
            "pension_entity_affiliate": null,
            "identity_card_borrower": "9862578",
            "registration_borrower": null,
            "last_name_borrower": "FLORES",
            "mothers_last_name_borrower": "CAPAJAÑA",
            "first_name_borrower": "JULIO",
            "second_name_borrower": "JHONATHAN",
            "surname_husband_borrower": null,
            "full_name_borrower": "FLORES CAPAJAÑA JULIO JHONATHAN ",
            "sub_modality_loan": "Corto Plazo Sector Activo",
            "shortened_sub_modality_loan": "COR-ACT",
            "modality_loan": "Corto Plazo",
            "name_modality_loan": "Préstamo a Corto Plazo",
            "amount_approved_loan": "18000",
            "quota_loan": "916.12",
            "state_loan": "Anulado",
            "city_loan": "BENI",
            "user_loan": "mhurtado",
            "name_role_loan": "Plataforma",
            "loan_term": 24,
            "disbursement_date_loan": null,
            "request_date_loan": "2021-07-07",
            "validated_loan": true,
            "type_affiliate_spouse_loan": "affiliates",
            "guarantor_loan": false
        }
    ],
    "first_page_url": "http://192.168.2.242/api/v1/loan_tracking?page=1",
    "from": 1,
    "last_page": 2,
    "last_page_url": "http://192.168.2.242/api/v1/loan_tracking?page=2",
    "next_page_url": "http://192.168.2.242/api/v1/loan_tracking?page=2",
    "path": "http://192.168.2.242/api/v1/loan_tracking",
    "per_page": 10,
    "prev_page_url": null,
    "to": 10,
    "total": 17
}