{
    "current_page": 1,
    "data": [
        {
            "id_loan": 737,
            "code_loan": "PTMO000737-2021",
            "num_accounting_voucher_loan": null,
            "guarantor_amortizing_loan": false,
            "id_affiliate": 57950,
            "identity_card_affiliate": "9423572",
            "city_exp_first_shortened_affiliate": "CH",
            "registration_affiliate": null,
            "last_name_affiliate": "ARIAS",
            "mothers_last_name_affiliate": "VASQUEZ",
            "first_name_affiliate": "AARON",
            "second_name_affiliate": "RAFAEL",
            "surname_husband_affiliate": null,
            "full_name_affiliate": "ARIAS VASQUEZ AARON RAFAEL ",
            "state_type_affiliate": "Activo",
            "state_affiliate": "Servicio",
            "pension_entity_affiliate": null,
            "identity_card_borrower": "9423572",
            "city_exp_borrower": "CHUQUISACA",
            "city_exp_first_shortened_borrower": "CH",
            "registration_borrower": null,
            "last_name_borrower": "ARIAS",
            "mothers_last_name_borrower": "VASQUEZ",
            "first_name_borrower": "AARON",
            "second_name_borrower": "RAFAEL",
            "surname_husband_borrower": null,
            "full_name_borrower": "ARIAS VASQUEZ AARON RAFAEL ",
            "sub_modality_loan": "Largo Plazo con Garantía Personal Sector Activo",
            "shortened_sub_modality_loan": "LAR-ACT",
            "modality_loan": "Largo Plazo",
            "name_modality_loan": "Préstamo a Largo Plazo",
            "amount_approved_loan": "61461",
            "quota_loan": "1404.73",
            "indebtedness_borrower": "50",
            "state_loan": "En Proceso",
            "city_loan": "LA PAZ",
            "user_loan": "gpatty",
            "name_role_loan": "Plataforma",
            "loan_term": 60,
            "disbursement_date_loan": null,
            "request_date_loan": "2021-07-26",
            "validated_loan": true,
            "type_affiliate_spouse_loan": "affiliates",
            "guarantor_loan": false,
            "balance_loan": 61461
        },
        {
            "id_loan": 695,
            "code_loan": "PTMO000695-2021",
            "num_accounting_voucher_loan": null,
            "guarantor_amortizing_loan": false,
            "id_affiliate": 30354,
            "identity_card_affiliate": "4894397",
            "city_exp_first_shortened_affiliate": "LP",
            "registration_affiliate": null,
            "last_name_affiliate": "MAMANI",
            "mothers_last_name_affiliate": "VELASQUEZ",
            "first_name_affiliate": "SULMA",
            "second_name_affiliate": "OLGA",
            "surname_husband_affiliate": null,
            "full_name_affiliate": "MAMANI VELASQUEZ SULMA OLGA ",
            "state_type_affiliate": "Activo",
            "state_affiliate": "Servicio",
            "pension_entity_affiliate": null,
            "identity_card_borrower": "4894397",
            "city_exp_borrower": "LA PAZ",
            "city_exp_first_shortened_borrower": "LP",
            "registration_borrower": null,
            "last_name_borrower": "MAMANI",
            "mothers_last_name_borrower": "VELASQUEZ",
            "first_name_borrower": "SULMA",
            "second_name_borrower": "OLGA",
            "surname_husband_borrower": null,
            "full_name_borrower": "MAMANI VELASQUEZ SULMA OLGA ",
            "sub_modality_loan": "Largo Plazo con Garantía Personal Sector Activo",
            "shortened_sub_modality_loan": "LAR-ACT",
            "modality_loan": "Largo Plazo",
            "name_modality_loan": "Préstamo a Largo Plazo",
            "amount_approved_loan": "65000",
            "quota_loan": "1485.61",
            "indebtedness_borrower": "46.43",
            "state_loan": "En Proceso",
            "city_loan": "LA PAZ",
            "user_loan": null,
            "name_role_loan": "Revisión Legal",
            "loan_term": 60,
            "disbursement_date_loan": null,
            "request_date_loan": "2021-07-14",
            "validated_loan": false,
            "type_affiliate_spouse_loan": "affiliates",
            "guarantor_loan": false,
            "balance_loan": 65000
        }
    ],
    "first_page_url": "http://192.168.2.242/api/v1/list_loan_generate?page=1",
    "from": 1,
    "last_page": 2,
    "last_page_url": "http://192.168.2.242/api/v1/list_loan_generate?page=2",
    "next_page_url": "http://192.168.2.242/api/v1/list_loan_generate?page=2",
    "path": "http://192.168.2.242/api/v1/list_loan_generate",
    "per_page": "2",
    "prev_page_url": null,
    "to": 2,
    "total": 4
}