{
    "current_page": 1,
    "data": [
        {
            "id": 5,
            "code": "PTMO000001-2021",
            "disbursable_id": 57950,
            "disbursable_type": "affiliates",
            "procedure_modality_id": 32,
            "disbursement_date": null,
            "parent_loan_id": null,
            "parent_reason": null,
            "request_date": "2021-01-26T04:00:00.000000Z",
            "amount_requested": 2000,
            "city_id": 4,
            "interest_id": 1,
            "state_id": 1,
            "amount_approved": 2000,
            "indebtedness_calculated": "20.9",
            "liquid_qualification_calculated": "5000",
            "loan_term": 2,
            "payment_type_id": 3,
            "number_payment_type": null,
            "destiny_id": 1,
            "financial_entity_id": null,
            "role_id": 82,
            "property_id": null,
            "validated": true,
            "user_id": 70,
            "created_at": "2021-01-26T18:25:57.000000Z",
            "updated_at": "2021-01-26T18:25:57.000000Z",
            "deleted_at": null
        }
    ],
    "first_page_url": "http://192.168.2.99/api/v1/my_loans?page=1",
    "from": 1,
    "last_page": 3,
    "last_page_url": "http://192.168.2.99/api/v1/my_loans?page=3",
    "next_page_url": "http://192.168.2.99/api/v1/my_loans?page=2",
    "path": "http://192.168.2.99/api/v1/my_loans",
    "per_page": "1",
    "prev_page_url": null,
    "to": 1,
    "total": 3
}